\relax 
\providecommand\hyper@newdestlabel[2]{}
\providecommand\HyperFirstAtBeginDocument{\AtBeginDocument}
\HyperFirstAtBeginDocument{\ifx\hyper@anchor\@undefined
\global\let\oldcontentsline\contentsline
\gdef\contentsline#1#2#3#4{\oldcontentsline{#1}{#2}{#3}}
\global\let\oldnewlabel\newlabel
\gdef\newlabel#1#2{\newlabelxx{#1}#2}
\gdef\newlabelxx#1#2#3#4#5#6{\oldnewlabel{#1}{{#2}{#3}}}
\AtEndDocument{\ifx\hyper@anchor\@undefined
\let\contentsline\oldcontentsline
\let\newlabel\oldnewlabel
\fi}
\fi}
\global\let\hyper@last\relax 
\gdef\HyperFirstAtBeginDocument#1{#1}
\providecommand\HyField@AuxAddToFields[1]{}
\providecommand\HyField@AuxAddToCoFields[2]{}
\newlabel{page0<1>}{{1}{1}{}{Doc-Start}{}}
\@writefile{snm}{\beamer@slide {page0<1>}{1}}
\newlabel{page0}{{1}{1}{}{Doc-Start}{}}
\@writefile{snm}{\beamer@slide {page0}{1}}
\@writefile{nav}{\headcommand {\slideentry {0}{0}{1}{1/1}{}{0}}}
\@writefile{nav}{\headcommand {\beamer@framepages {1}{1}}}
\newlabel{page1<1>}{{2}{2}{}{Doc-Start}{}}
\@writefile{snm}{\beamer@slide {page1<1>}{2}}
\newlabel{page1}{{2}{2}{}{Doc-Start}{}}
\@writefile{snm}{\beamer@slide {page1}{2}}
\@writefile{nav}{\headcommand {\slideentry {0}{0}{2}{2/2}{}{0}}}
\@writefile{nav}{\headcommand {\beamer@framepages {2}{2}}}
\newlabel{page2<1>}{{3}{3}{}{Doc-Start}{}}
\@writefile{snm}{\beamer@slide {page2<1>}{3}}
\newlabel{page2}{{3}{3}{}{Doc-Start}{}}
\@writefile{snm}{\beamer@slide {page2}{3}}
\@writefile{nav}{\headcommand {\slideentry {0}{0}{3}{3/3}{}{0}}}
\@writefile{nav}{\headcommand {\beamer@framepages {3}{3}}}
\newlabel{page3<1>}{{4}{4}{}{Doc-Start}{}}
\@writefile{snm}{\beamer@slide {page3<1>}{4}}
\newlabel{page3}{{4}{4}{}{Doc-Start}{}}
\@writefile{snm}{\beamer@slide {page3}{4}}
\@writefile{nav}{\headcommand {\slideentry {0}{0}{4}{4/4}{}{0}}}
\@writefile{nav}{\headcommand {\beamer@framepages {4}{4}}}
\newlabel{page4<1>}{{5}{5}{}{Doc-Start}{}}
\@writefile{snm}{\beamer@slide {page4<1>}{5}}
\newlabel{page4}{{5}{5}{}{Doc-Start}{}}
\@writefile{snm}{\beamer@slide {page4}{5}}
\@writefile{nav}{\headcommand {\slideentry {0}{0}{5}{5/5}{}{0}}}
\@writefile{nav}{\headcommand {\beamer@framepages {5}{5}}}
\newlabel{page5<1>}{{6}{6}{}{Doc-Start}{}}
\@writefile{snm}{\beamer@slide {page5<1>}{6}}
\newlabel{page5}{{6}{6}{}{Doc-Start}{}}
\@writefile{snm}{\beamer@slide {page5}{6}}
\@writefile{nav}{\headcommand {\slideentry {0}{0}{6}{6/6}{}{0}}}
\@writefile{nav}{\headcommand {\beamer@framepages {6}{6}}}
\newlabel{page6<1>}{{7}{7}{}{Doc-Start}{}}
\@writefile{snm}{\beamer@slide {page6<1>}{7}}
\newlabel{page6}{{7}{7}{}{Doc-Start}{}}
\@writefile{snm}{\beamer@slide {page6}{7}}
\@writefile{nav}{\headcommand {\slideentry {0}{0}{7}{7/7}{}{0}}}
\@writefile{nav}{\headcommand {\beamer@framepages {7}{7}}}
\newlabel{page7<1>}{{8}{8}{}{Doc-Start}{}}
\@writefile{snm}{\beamer@slide {page7<1>}{8}}
\newlabel{page7}{{8}{8}{}{Doc-Start}{}}
\@writefile{snm}{\beamer@slide {page7}{8}}
\@writefile{nav}{\headcommand {\slideentry {0}{0}{8}{8/8}{}{0}}}
\@writefile{nav}{\headcommand {\beamer@framepages {8}{8}}}
\newlabel{page8<1>}{{9}{9}{}{Doc-Start}{}}
\@writefile{snm}{\beamer@slide {page8<1>}{9}}
\newlabel{page8}{{9}{9}{}{Doc-Start}{}}
\@writefile{snm}{\beamer@slide {page8}{9}}
\@writefile{nav}{\headcommand {\slideentry {0}{0}{9}{9/9}{}{0}}}
\@writefile{nav}{\headcommand {\beamer@framepages {9}{9}}}
\newlabel{page9<1>}{{10}{10}{}{Doc-Start}{}}
\@writefile{snm}{\beamer@slide {page9<1>}{10}}
\newlabel{page9}{{10}{10}{}{Doc-Start}{}}
\@writefile{snm}{\beamer@slide {page9}{10}}
\@writefile{nav}{\headcommand {\slideentry {0}{0}{10}{10/10}{}{0}}}
\@writefile{nav}{\headcommand {\beamer@framepages {10}{10}}}
\newlabel{page10<1>}{{11}{11}{}{Doc-Start}{}}
\@writefile{snm}{\beamer@slide {page10<1>}{11}}
\newlabel{page10}{{11}{11}{}{Doc-Start}{}}
\@writefile{snm}{\beamer@slide {page10}{11}}
\@writefile{nav}{\headcommand {\slideentry {0}{0}{11}{11/11}{}{0}}}
\@writefile{nav}{\headcommand {\beamer@framepages {11}{11}}}
\newlabel{page11<1>}{{12}{12}{}{Doc-Start}{}}
\@writefile{snm}{\beamer@slide {page11<1>}{12}}
\newlabel{page11}{{12}{12}{}{Doc-Start}{}}
\@writefile{snm}{\beamer@slide {page11}{12}}
\@writefile{nav}{\headcommand {\slideentry {0}{0}{12}{12/12}{}{0}}}
\@writefile{nav}{\headcommand {\beamer@framepages {12}{12}}}
\newlabel{page12<1>}{{13}{13}{}{Doc-Start}{}}
\@writefile{snm}{\beamer@slide {page12<1>}{13}}
\newlabel{page12}{{13}{13}{}{Doc-Start}{}}
\@writefile{snm}{\beamer@slide {page12}{13}}
\@writefile{nav}{\headcommand {\slideentry {0}{0}{13}{13/13}{}{0}}}
\@writefile{nav}{\headcommand {\beamer@framepages {13}{13}}}
\newlabel{page13<1>}{{14}{14}{}{Doc-Start}{}}
\@writefile{snm}{\beamer@slide {page13<1>}{14}}
\newlabel{page13}{{14}{14}{}{Doc-Start}{}}
\@writefile{snm}{\beamer@slide {page13}{14}}
\@writefile{nav}{\headcommand {\slideentry {0}{0}{14}{14/14}{}{0}}}
\@writefile{nav}{\headcommand {\beamer@framepages {14}{14}}}
\newlabel{page14<1>}{{15}{15}{}{Doc-Start}{}}
\@writefile{snm}{\beamer@slide {page14<1>}{15}}
\newlabel{page14}{{15}{15}{}{Doc-Start}{}}
\@writefile{snm}{\beamer@slide {page14}{15}}
\@writefile{nav}{\headcommand {\slideentry {0}{0}{15}{15/15}{}{0}}}
\@writefile{nav}{\headcommand {\beamer@framepages {15}{15}}}
\newlabel{overlay<1>}{{16}{16}{}{Doc-Start}{}}
\@writefile{snm}{\beamer@slide {overlay<1>}{16}}
\newlabel{overlay}{{16}{16}{}{Doc-Start}{}}
\@writefile{snm}{\beamer@slide {overlay}{16}}
\@writefile{nav}{\headcommand {\slideentry {0}{0}{16}{16/16}{}{0}}}
\@writefile{nav}{\headcommand {\beamer@framepages {16}{16}}}
\@writefile{nav}{\headcommand {\beamer@partpages {1}{16}}}
\@writefile{nav}{\headcommand {\beamer@subsectionpages {1}{16}}}
\@writefile{nav}{\headcommand {\beamer@sectionpages {1}{16}}}
\@writefile{nav}{\headcommand {\beamer@documentpages {16}}}
\@writefile{nav}{\headcommand {\gdef \inserttotalframenumber {16}}}
